<?xml version="1.0" encoding="utf-8"?>
<!-- Generator: Adobe Illustrator 16.0.0, SVG Export Plug-In . SVG Version: 6.00 Build 0)  -->
<!DOCTYPE svg PUBLIC "-//W3C//DTD SVG 1.1//EN" "http://www.w3.org/Graphics/SVG/1.1/DTD/svg11.dtd">
<svg version="1.1" id="Layer_1" xmlns="http://www.w3.org/2000/svg" xmlns:xlink="http://www.w3.org/1999/xlink" x="0px" y="0px"
	 width="43.7px" height="38.047px" viewBox="0 0 43.7 38.047" enable-background="new 0 0 43.7 38.047" xml:space="preserve">
<g>
	<path fill="#FFFFFF" d="M4.72,32.422c4.594-2.33,10.424-3.725,16.77-3.725c7.07,0,13.502,1.73,18.293,4.558
		c0.034,0.014,0.069,0.027,0.104,0.04c-4.301-3.779-10.818-6.189-18.115-6.189C15.053,27.105,8.995,29.147,4.72,32.422z"/>
	<path fill="#FFFFFF" d="M2.46,34.44c-0.14,0.146-0.278,0.295-0.412,0.445c5.462-1.894,12.087-3.004,19.23-3.004
		c7.78,0,14.945,1.316,20.661,3.527c-0.242-0.295-0.496-0.585-0.763-0.867c-2.602-1.438-5.653-2.594-9.02-3.383
		c-3.044-0.564-6.275-0.869-9.627-0.869C14.968,30.29,8.004,31.84,2.46,34.44z"/>
	<path fill="#FFFFFF" d="M21.363,34.901c8.377,0,16.108,1.17,22.337,3.146c-0.115-0.218-0.235-0.435-0.361-0.648
		c-5.657-2.654-13.265-4.279-21.633-4.279c-8.28,0-15.817,1.592-21.455,4.198C0.165,37.46,0.081,37.604,0,37.75
		C6.052,35.954,13.417,34.901,21.363,34.901z"/>
	<g>
		<path fill="#FFFFFF" d="M34.9,29.274c0.024-0.003,0.048-0.007,0.072-0.011l0.465-9.042c-2.532,1.326-8.356,2.192-10.542,2.192
			c-3.546,0-6.616-2.676-6.616-6.147c0-3.429,2.897-6.146,6.443-6.146c1.28,0,2.492,0.336,3.615,0.873l2.98-9.703
			C28.815,0.458,26.056,0,23.382,0C13.825,0,6.344,7.36,6.344,16.56c0,4.784,2.073,8.727,5.405,11.514
			c3.721-1.182,6.693-1.608,10.461-1.608C27.015,26.465,30.594,27.371,34.9,29.274z"/>
	</g>
</g>
</svg>
